{
    "token": "example-token",
    "prefix": "!",
    "owner_id": "your-discord-id",
    "channel_id": "your-active-channel-id",
    "bible_bot_id": "bible-bot-id",
    "authorized_roles": ["Player"]
}